{
  "project_info": {
    "project_number": "775478536951",
    "firebase_url": "https://baseprojectsample-20bd8.firebaseio.com",
    "project_id": "baseprojectsample-20bd8",
    "storage_bucket": "baseprojectsample-20bd8.appspot.com"
  },
  "client": [
    {
      "client_info": {
        "mobilesdk_app_id": "1:775478536951:android:5387e4b1701d483c7ec1f2",
        "android_client_info": {
          "package_name": "com.baseproject"
        }
      },
      "oauth_client": [
        {
          "client_id": "775478536951-d3gl9kf37pih1n77bte467nhlc1qb2j1.apps.googleusercontent.com",
          "client_type": 3
        }
      ],
      "api_key": [
        {
          "current_key": "AIzaSyCuEwTqSfrcOa52d1yTjc99v8rRRlwoh24"
        }
      ],
      "services": {
        "appinvite_service": {
          "other_platform_oauth_client": [
            {
              "client_id": "775478536951-d3gl9kf37pih1n77bte467nhlc1qb2j1.apps.googleusercontent.com",
              "client_type": 3
            },
            {
              "client_id": "775478536951-1ifrro1ejqo09282hs05j13thvdcuc0n.apps.googleusercontent.com",
              "client_type": 2,
              "ios_info": {
                "bundle_id": "com.mfluid.RNBaseProject"
              }
            }
          ]
        }
      }
    }
  ],
  "configuration_version": "1"
}